{
  "status": "success",
  "message": "Get feedbacks succeed",
  "result": {
    "data": [
      {
        "_id": "648b106e145e45b682e28602",
        "tid": 0,
        "emotion": 5,
        "content": "太强了",
        "user_name": null,
        "user_email": null,
        "marked": false,
        "remark": "",
        "origin": "https://surmon.me",
        "user_agent": "Mozilla/5.0 (Windows NT 10.0; Win64; x64) AppleWebKit/537.36 (KHTML, like Gecko) Chrome/114.0.0.0 Safari/537.36",
        "ip": "113.52.132.157",
        "ip_location": {
          "country": "Hong Kong",
          "country_code": "HK",
          "region": "Eastern",
          "region_code": "HEA",
          "city": "Causeway Bay",
          "zip": "96521"
        },
        "created_at": "2023-06-15T13:21:50.512Z",
        "updated_at": "2023-06-15T13:21:50.512Z",
        "id": 31,
        "__v": 0,
        "emotion_text": "Amazing",
        "emotion_emoji": "🥰"
      },
      {
        "_id": "64644bd4145e45b682dbc0c5",
        "tid": 0,
        "emotion": 4,
        "content": "碉堡了",
        "user_name": null,
        "user_email": null,
        "marked": false,
        "remark": "",
        "origin": "https://surmon.me",
        "user_agent": "Mozilla/5.0 (Windows NT 10.0; Win64; x64) AppleWebKit/537.36 (KHTML, like Gecko) Chrome/113.0.0.0 Safari/537.36",
        "ip": "219.78.228.190",
        "ip_location": {
          "country": "Hong Kong",
          "country_code": "HK",
          "region": "Kowloon City",
          "region_code": "KKC",
          "city": "Kowloon",
          "zip": "96521"
        },
        "created_at": "2023-05-17T03:36:52.033Z",
        "updated_at": "2023-05-17T03:36:52.033Z",
        "id": 30,
        "__v": 0,
        "emotion_text": "Great",
        "emotion_emoji": "😃"
      },
      {
        "_id": "642023af8049c1b8bc487b05",
        "tid": 0,
        "emotion": 5,
        "content": "非常漂亮",
        "user_name": null,
        "user_email": null,
        "marked": false,
        "remark": "",
        "origin": "https://surmon.me",
        "user_agent": "Mozilla/5.0 (Windows NT 10.0; Win64; x64) AppleWebKit/537.36 (KHTML, like Gecko) Chrome/110.0.0.0 Safari/537.36",
        "ip": "121.33.207.36",
        "ip_location": {
          "country": "China",
          "country_code": "CN",
          "region": "Guangdong",
          "region_code": "GD",
          "city": "Guangzhou",
          "zip": ""
        },
        "created_at": "2023-03-26T10:51:27.565Z",
        "updated_at": "2023-03-26T10:51:27.565Z",
        "id": 27,
        "__v": 0,
        "emotion_text": "Amazing",
        "emotion_emoji": "🥰"
      },
      {
        "_id": "63f96775de1c3b18ac207255",
        "tid": 0,
        "emotion": 5,
        "content": "你好",
        "user_name": null,
        "user_email": null,
        "marked": false,
        "remark": "",
        "origin": "https://surmon.me",
        "user_agent": "Mozilla/5.0 (Macintosh; Intel Mac OS X 10_15_7) AppleWebKit/537.36 (KHTML, like Gecko) Chrome/109.0.0.0 Safari/537.36",
        "ip": "1.36.204.6",
        "ip_location": {
          "country": "Hong Kong",
          "country_code": "HK",
          "region": "Central and Western District",
          "region_code": "HCW",
          "city": "Central",
          "zip": "96521"
        },
        "created_at": "2023-02-25T01:42:13.167Z",
        "updated_at": "2023-02-25T01:42:13.167Z",
        "id": 26,
        "__v": 0,
        "emotion_text": "Amazing",
        "emotion_emoji": "🥰"
      },
      {
        "_id": "6395f58ec75007ae991b82f3",
        "tid": 0,
        "emotion": 5,
        "content": "I am TF",
        "user_name": "Surmon (Disqus)",
        "user_email": null,
        "marked": true,
        "remark": "",
        "origin": "https://surmon.me",
        "user_agent": "Mozilla/5.0 (Macintosh; Intel Mac OS X 10_15_7) AppleWebKit/537.36 (KHTML, like Gecko) Chrome/108.0.0.0 Safari/537.36",
        "ip": "61.8.225.163",
        "ip_location": {
          "country": "Singapore",
          "country_code": "SG",
          "region": "Central Singapore",
          "region_code": "01",
          "city": "Singapore",
          "zip": "408942"
        },
        "updated_at": "2022-12-26T17:31:27.131Z",
        "created_at": "2022-12-11T15:21:50.867Z",
        "id": 25,
        "__v": 0,
        "emotion_text": "Amazing",
        "emotion_emoji": "🥰"
      },
      {
        "_id": "6336b7f22c4ca50c89a9550b",
        "tid": 0,
        "emotion": 5,
        "content": "Very Good",
        "user_name": null,
        "user_email": null,
        "marked": false,
        "remark": "",
        "origin": "https://surmon.me",
        "user_agent": "Mozilla/5.0 (Macintosh; Intel Mac OS X 10_15_7) AppleWebKit/537.36 (KHTML, like Gecko) Chrome/105.0.0.0 Safari/537.36",
        "ip": "61.224.62.18",
        "ip_location": {
          "country": "Taiwan",
          "country_code": "TW",
          "region": "Changhua",
          "region_code": "CHA",
          "city": "Chang-hua",
          "zip": ""
        },
        "updated_at": "2022-09-30T09:33:38.670Z",
        "created_at": "2022-09-30T09:33:38.670Z",
        "id": 21,
        "__v": 0,
        "emotion_text": "Amazing",
        "emotion_emoji": "🥰"
      },
      {
        "_id": "6305e6f6f49d07245a180487",
        "tid": 0,
        "emotion": 3,
        "content": "以前的彩蛋咋都没有了呢？",
        "user_name": null,
        "user_email": null,
        "marked": false,
        "remark": "",
        "origin": "https://surmon.me",
        "user_agent": "Mozilla/5.0 (Macintosh; Intel Mac OS X 10_15_7) AppleWebKit/537.36 (KHTML, like Gecko) Chrome/104.0.0.0 Safari/537.36",
        "ip": "36.110.14.101",
        "ip_location": {
          "country": "China",
          "country_code": "CN",
          "region": "Beijing",
          "region_code": "BJ",
          "city": "Beijing",
          "zip": ""
        },
        "updated_at": "2022-08-24T08:53:10.640Z",
        "created_at": "2022-08-24T08:53:10.640Z",
        "id": 20,
        "__v": 0,
        "emotion_text": "Neutral",
        "emotion_emoji": "😐"
      },
      {
        "_id": "62c6488ec863971f00b1953c",
        "tid": 0,
        "emotion": 5,
        "content": "源码可以共享吗？",
        "user_name": null,
        "user_email": null,
        "marked": false,
        "remark": "",
        "origin": "https://surmon.me",
        "user_agent": "Mozilla/5.0 (Windows NT 10.0; Win64; x64) AppleWebKit/537.36 (KHTML, like Gecko) Chrome/103.0.5060.114 Safari/537.36 Edg/103.0.1264.49",
        "ip": "113.88.238.151",
        "ip_location": {
          "country": "China",
          "country_code": "CN",
          "region": "Guangdong",
          "region_code": "GD",
          "city": "Shenzhen",
          "zip": ""
        },
        "updated_at": "2022-07-07T02:44:30.962Z",
        "created_at": "2022-07-07T02:44:30.962Z",
        "id": 18,
        "__v": 0,
        "emotion_text": "Amazing",
        "emotion_emoji": "🥰"
      },
      {
        "_id": "62b9971064e2806ac6741b94",
        "tid": 0,
        "emotion": 5,
        "content": "太棒了",
        "user_name": "Guest (Local)",
        "user_email": "guest.mock@qq.com",
        "marked": false,
        "remark": "",
        "origin": "https://surmon.me",
        "user_agent": "Mozilla/5.0 (Windows NT 10.0; WOW64) AppleWebKit/537.36 (KHTML, like Gecko) Chrome/89.0.4389.114 Safari/537.36",
        "ip": "116.30.117.216",
        "ip_location": {
          "country": "China",
          "country_code": "CN",
          "region": "Guangdong",
          "region_code": "GD",
          "city": "Shenzhen",
          "zip": ""
        },
        "updated_at": "2022-06-27T11:40:00.592Z",
        "created_at": "2022-06-27T11:40:00.592Z",
        "id": 16,
        "__v": 0,
        "emotion_text": "Amazing",
        "emotion_emoji": "🥰"
      },
      {
        "_id": "6293a6b9c3407e6d84c15ed7",
        "tid": 0,
        "emotion": 5,
        "content": "直接给自己打个喜欢",
        "user_name": "Surmon (Disqus)",
        "user_email": null,
        "marked": false,
        "remark": "",
        "origin": "https://surmon.me",
        "user_agent": "Mozilla/5.0 (Macintosh; Intel Mac OS X 10_15_7) AppleWebKit/537.36 (KHTML, like Gecko) Chrome/101.0.0.0 Safari/537.36",
        "ip": "101.88.125.156",
        "ip_location": {
          "country": "China",
          "country_code": "CN",
          "region": "Shanghai",
          "region_code": "SH",
          "city": "Shanghai",
          "zip": ""
        },
        "updated_at": "2022-05-29T17:00:41.809Z",
        "created_at": "2022-05-29T17:00:41.809Z",
        "id": 15,
        "__v": 0,
        "emotion_text": "Amazing",
        "emotion_emoji": "🥰"
      },
      {
        "_id": "628f7333c3407e6d84c068b7",
        "tid": 0,
        "emotion": 5,
        "content": "nice work",
        "user_name": null,
        "user_email": null,
        "marked": false,
        "remark": "",
        "origin": "https://surmon.me",
        "user_agent": "Mozilla/5.0 (Macintosh; Intel Mac OS X 10_15_7) AppleWebKit/537.36 (KHTML, like Gecko) Chrome/101.0.0.0 Safari/537.36",
        "ip": "176.89.235.78",
        "ip_location": {
          "country": "Turkey",
          "country_code": "TR",
          "region": "Ankara",
          "region_code": "06",
          "city": "Ankara",
          "zip": "06430"
        },
        "updated_at": "2022-05-26T12:31:47.735Z",
        "created_at": "2022-05-26T12:31:47.735Z",
        "id": 14,
        "__v": 0,
        "emotion_text": "Amazing",
        "emotion_emoji": "🥰"
      }
    ],
    "pagination": {
      "total": 18,
      "current_page": 1,
      "per_page": 16,
      "total_page": 2
    }
  }
}
